{
  "type": "service_account",
  "project_id": "yomvi-b2179",
  "private_key_id": "e9e80cedf685d9c8a4db3807a5d059410f909876",
  "private_key": "-----BEGIN PRIVATE KEY-----\nMIIEvgIBADANBgkqhkiG9w0BAQEFAASCBKgwggSkAgEAAoIBAQChXsi2IehHDIvu\n3LvWiLvJmuT6jd1tAaDolg/Ai/EYRQbnWuPx0mSwAYnNj8qf+Zxb6l6t7wFkb5Av\n5sjZsf5Li/mYfoj5RHW4Y45mTMNvccWk409r+HnymFn/xfvIj2s8cTBQiUmGgPjP\njQVqHik4JuE9cws+bQ9GB35EnW6sWF/wHPGsst9UBK3Z1FmPwT6fKvzqG2j1Nvw8\nqu6wyMxrr5BYmrl6YWI/YpCAWvb2vxQNXzErO4gSvYnt5H1aAmwr5qdTwUBEa+DW\nD26hyKw2Go+9kUYcN/BRvPOfyW2e8kl4CZ6+A/ZoVwhZH3xEoDKTh/bId2FNSoM1\nGoGc0W19AgMBAAECggEACRDsMd9hz2wTCI56Nyljc4YySylhQViQE8EqjWTPXM+z\n/ZeLqvBpG8JaXaQwfCBn+noGa7s71sq1zRsoOaLYaKIqmbiyNV71RjDBtVmmuUIp\nGoRy19wT7d9FXyteY/w6yCCL2Fp+OQJR+EcyAK5FHpSAnxUxkoZKD2MoYu59Y01U\ny6SMroCh5VxNZ7MNp9JiU71lZzSAXbHbO/C0oa71Xzafbth+1GMLOCKOYnrZVayZ\nXp4yYFNnr6EQReR5/SEbESYTd02B2Lp/botTbg6SSNwkzORs/yShJPfhPJcQYJ+d\nz5LnOWpOwYOKO48xNHfFTszbVQaIC4Vu5+aVWs7KwQKBgQDjLj62rhgnK5GfOiyF\nN/0rie9PY4V698oGnm8cGa84gfrJiNSIOWA4ncSa9Tt+GLtlicLiqppRi5Qf+wRP\nZNoH1YaSWFug71Q/nMauQHXq6UZ0JD18DDEFMbSH0l0jZjv3GyUHlhkAJhl7t4kV\nTklWnJU+d0H6aSMYBBuTFtzzxQKBgQC111P8w43CctR7ObJNrUgqkxjVq7hOV2Dv\npyMrjuyW9c3mjZbMGYWR+sRNWqVlFcetLZDVxDnBXzNuv8pbLYm3eXoK38vjCST3\nyFGnHXbitnr/THvYRrOax4XVlyuzgf6ZnYD4wBON10li+jSX7ubL7wKzvJGFVzBJ\n3VH/zvLWWQKBgQCZuR8iiec6Chc9gSXC90HOhkVymMsnjCgeFnLkttSEDh/e40G8\n8+YSKV9x42LgTmfvqyo+KmbFqwcOJNKjzoBiMLAgsr09xvRhHvqpymCAFl1gFW2t\nVKqO8zVPep8fZvxIlwuVeJFuMlmoB2cxDYo+mzG51QTGJwJiK9Vk0GGuaQKBgEkg\n05HvQu9UJsd3qJE8gq08gtxLNs+qrD00xhwaWmNLbwatIlvqV6EhbBh/v8wrOiYX\nEQwm4eM2WgTL9KE+awfyPnZpEiG357oOQWgnnUwHfud05slPhaNVYilHpjeGq9Ez\nWk6vUC3WypiXbtc7KG4TLM8DorIxIiZSb0uk+lvhAoGBAJela/j87LxrE1OwbT0D\n9evdIhVU6Q+Wz3RZy7ZUJzBlAlMkkVxYGSJ8H+Gs9EX3e+IspCTdD8if/9Se/nPK\nGoq1FxhbspOw5d/qQPCeyFzn9AIhQMiVnJSHSVg9gKsOaYrbBh3JmG3Mr52tAqZP\nyNw03Kf5X/cPCzk8bVryIJR3\n-----END PRIVATE KEY-----\n",
  "client_email": "test2-818@yomvi-b2179.iam.gserviceaccount.com",
  "client_id": "106023669735719923648",
  "auth_uri": "https://accounts.google.com/o/oauth2/auth",
  "token_uri": "https://accounts.google.com/o/oauth2/token",
  "auth_provider_x509_cert_url": "https://www.googleapis.com/oauth2/v1/certs",
  "client_x509_cert_url": "https://www.googleapis.com/robot/v1/metadata/x509/test2-818%40yomvi-b2179.iam.gserviceaccount.com"
}
